[
  {
    "node": "/",
    "parent": null
  },
  {
    "node": "home",
    "parent": "/",
    "nodeType": "dir"
  },
  {
    "node": "usr",
    "parent": "/",
    "nodeType": "dir"
  },
  {
    "node": "oddly",
    "parent": "home",
    "nodeType": "dir"
  },
  {
    "node": "oddly.txt",
    "parent": "oddly",
    "nodeType": "file",
    "meta": {
      "storageType": "fs",
      "size": "128",
      "mimetype": "text/text"
    }
  }
]